<?xml version="1.0" encoding="UTF-8"?>
<kml xmlns="http://www.opengis.net/kml/2.2" xmlns:gx="http://www.google.com/kml/ext/2.2">
    <Document id="329">
        <Placemark id="331">
            <name>Temp=23.5°C, Hum=17%</name>
            <Point id="330">
                <coordinates>11.669055,48.262219,0.0</coordinates>
            </Point>
        </Placemark>
        <Placemark id="333">
            <name>Temp=?°C, Hum=?%</name>
            <Point id="332">
                <coordinates>11.667433,48.262539,0.0</coordinates>
            </Point>
        </Placemark>
        <Placemark id="335">
            <name>Temp=?°C, Hum=?%</name>
            <Point id="334">
                <coordinates>11.66832,48.262648,0.0</coordinates>
            </Point>
        </Placemark>
    </Document>
</kml>
